(kicad_pcb (version 20211014) (generator pcbnew)

  (general
    (thickness 1.6)
  )

  (paper "A4")
  (layers
    (0 "F.Cu" signal)
    (31 "B.Cu" signal)
    (32 "B.Adhes" user "B.Adhesive")
    (33 "F.Adhes" user "F.Adhesive")
    (34 "B.Paste" user)
    (35 "F.Paste" user)
    (36 "B.SilkS" user "B.Silkscreen")
    (37 "F.SilkS" user "F.Silkscreen")
    (38 "B.Mask" user)
    (39 "F.Mask" user)
    (40 "Dwgs.User" user "User.Drawings")
    (41 "Cmts.User" user "User.Comments")
    (42 "Eco1.User" user "User.Eco1")
    (43 "Eco2.User" user "User.Eco2")
    (44 "Edge.Cuts" user)
    (45 "Margin" user)
    (46 "B.CrtYd" user "B.Courtyard")
    (47 "F.CrtYd" user "F.Courtyard")
    (48 "B.Fab" user)
    (49 "F.Fab" user)
    (50 "User.1" user)
    (51 "User.2" user)
    (52 "User.3" user)
    (53 "User.4" user)
    (54 "User.5" user)
    (55 "User.6" user)
    (56 "User.7" user)
    (57 "User.8" user)
    (58 "User.9" user)
  )

  (setup
    (pad_to_mask_clearance 0)
    (pcbplotparams
      (layerselection 0x00010fc_ffffffff)
      (disableapertmacros false)
      (usegerberextensions false)
      (usegerberattributes true)
      (usegerberadvancedattributes true)
      (creategerberjobfile true)
      (svguseinch false)
      (svgprecision 6)
      (excludeedgelayer true)
      (plotframeref false)
      (viasonmask false)
      (mode 1)
      (useauxorigin false)
      (hpglpennumber 1)
      (hpglpenspeed 20)
      (hpglpendiameter 15.000000)
      (dxfpolygonmode true)
      (dxfimperialunits true)
      (dxfusepcbnewfont true)
      (psnegative false)
      (psa4output false)
      (plotreference true)
      (plotvalue true)
      (plotinvisibletext false)
      (sketchpadsonfab false)
      (subtractmaskfromsilk false)
      (outputformat 1)
      (mirror false)
      (drillshape 1)
      (scaleselection 1)
      (outputdirectory "")
    )
  )

  (net 0 "")
  (net 1 "GND")
  (net 2 "Net-(D1-Pad2)")
  (net 3 "VCC")
  (net 4 "Net-(R1-Pad1)")

  (footprint "Button_Switch_THT:SW_PUSH_6mm_H5mm" (layer "F.Cu")
    (tedit 5A02FE31) (tstamp 4e33437a-ffe0-444c-acfd-f576b80848af)
    (at 206.8 119.05)
    (descr "tactile push button, 6x6mm e.g. PHAP33xx series, height=5mm")
    (tags "tact sw push 6mm")
    (property "Sheetfile" "myproject.kicad_sch")
    (property "Sheetname" "")
    (path "/c8590039-519f-40c0-a38d-97544a6abf21")
    (attr through_hole)
    (fp_text reference "SW1" (at 3.325 -2.375) (layer "F.SilkS")
      (effects (font (size 1 1) (thickness 0.15)))
      (tstamp 99919f16-809b-4d37-b44a-061baa0477d2)
    )
    (fp_text value "Switch" (at -2.45 2.85 270) (layer "F.Fab")
      (effects (font (size 1 1) (thickness 0.15)))
      (tstamp c0198b76-87db-42ba-affe-01d58c1285ef)
    )
    (fp_text user "${REFERENCE}" (at 3.25 2.25) (layer "F.Fab")
      (effects (font (size 1 1) (thickness 0.15)))
      (tstamp 5da56ffc-8a9c-4e03-bae1-deb81c107e93)
    )
    (fp_line (start 5.5 -1) (end 1 -1) (layer "F.SilkS") (width 0.12) (tstamp 6343a04e-1b88-42f1-83e1-9cb64011d6e3))
    (fp_line (start -0.25 1.5) (end -0.25 3) (layer "F.SilkS") (width 0.12) (tstamp 9a8e5365-5d60-44e4-81cc-4f11e0761eee))
    (fp_line (start 1 5.5) (end 5.5 5.5) (layer "F.SilkS") (width 0.12) (tstamp a13234a4-44ed-4ae0-aed0-b3d4cb98b8a2))
    (fp_line (start 6.75 3) (end 6.75 1.5) (layer "F.SilkS") (width 0.12) (tstamp b49774da-604d-4998-8c4c-5fba059de634))
    (fp_line (start -1.5 -1.25) (end -1.5 -1.5) (layer "F.CrtYd") (width 0.05) (tstamp 0c43492a-1d06-42e1-aab3-dafca109a963))
    (fp_line (start -1.5 -1.5) (end -1.25 -1.5) (layer "F.CrtYd") (width 0.05) (tstamp 2360cce9-2c52-458b-8b5a-4b4a51608521))
    (fp_line (start -1.5 5.75) (end -1.5 -1.25) (layer "F.CrtYd") (width 0.05) (tstamp 34c29b3d-67bc-4b77-97b0-c0ee7abd6abd))
    (fp_line (start 7.75 6) (end 8 6) (layer "F.CrtYd") (width 0.05) (tstamp 7842d206-f251-4736-9b18-47b1c5cace33))
    (fp_line (start -1.5 6) (end -1.25 6) (layer "F.CrtYd") (width 0.05) (tstamp 8229cf0f-f13e-4fa4-b883-d7fe056db563))
    (fp_line (start 8 -1.5) (end 8 -1.25) (layer "F.CrtYd") (width 0.05) (tstamp 8cbfc894-8ef6-4121-b719-79072e2f55cb))
    (fp_line (start 8 6) (end 8 5.75) (layer "F.CrtYd") (width 0.05) (tstamp a83a235d-576c-48eb-9022-fbc159363fcd))
    (fp_line (start 7.75 -1.5) (end 8 -1.5) (layer "F.CrtYd") (width 0.05) (tstamp ae6f5e43-fcca-484f-97cc-8d34c79c8182))
    (fp_line (start 8 -1.25) (end 8 5.75) (layer "F.CrtYd") (width 0.05) (tstamp b05ab39a-81a2-413d-81a7-9ed4c7df36bd))
    (fp_line (start -1.5 5.75) (end -1.5 6) (layer "F.CrtYd") (width 0.05) (tstamp cf41fd9c-43f2-4657-a43a-6edb7e51b65d))
    (fp_line (start 7.75 6) (end -1.25 6) (layer "F.CrtYd") (width 0.05) (tstamp ed3a0144-49b0-4f80-9f9d-ae81f1fc9918))
    (fp_line (start -1.25 -1.5) (end 7.75 -1.5) (layer "F.CrtYd") (width 0.05) (tstamp f3b6cb1a-ffec-42f2-867d-15f48d94018f))
    (fp_line (start 6.25 5.25) (end 0.25 5.25) (layer "F.Fab") (width 0.1) (tstamp 148186ed-71ea-4d82-abdc-258470b6b9a6))
    (fp_line (start 0.25 5.25) (end 0.25 -0.75) (layer "F.Fab") (width 0.1) (tstamp 3c70d2c4-db41-4aca-9cd0-89cab37c3c30))
    (fp_line (start 6.25 -0.75) (end 6.25 5.25) (layer "F.Fab") (width 0.1) (tstamp 3e8a58a2-ba97-44ca-a7a3-f3d329f18d80))
    (fp_line (start 0.25 -0.75) (end 3.25 -0.75) (layer "F.Fab") (width 0.1) (tstamp 61c0465a-5b95-4209-8d6b-3d12a104b73f))
    (fp_line (start 3.25 -0.75) (end 6.25 -0.75) (layer "F.Fab") (width 0.1) (tstamp 9048269e-2470-41bf-beba-4eb191376e09))
    (fp_circle (center 3.25 2.25) (end 1.25 2.5) (layer "F.Fab") (width 0.1) (fill none) (tstamp 0c9cfe70-04f2-4dcc-b75e-d313fbd597fd))
    (pad "1" thru_hole circle (at 6.5 0 90) (size 2 2) (drill 1.1) (layers *.Cu *.Mask)
      (net 3 "VCC") (pinfunction "1") (pintype "passive") (tstamp 622b77b6-409c-43f6-9eed-dd8b04a79249))
    (pad "1" thru_hole circle (at 0 0 90) (size 2 2) (drill 1.1) (layers *.Cu *.Mask)
      (net 3 "VCC") (pinfunction "1") (pintype "passive") (tstamp e3d0b4f1-e9ca-4971-96e6-a3284331921b))
    (pad "2" thru_hole circle (at 0 4.5 90) (size 2 2) (drill 1.1) (layers *.Cu *.Mask)
      (net 4 "Net-(R1-Pad1)") (pinfunction "2") (pintype "passive") (tstamp dad56b3f-d746-4537-a8cd-e0c5fbebc95b))
    (pad "2" thru_hole circle (at 6.5 4.5 90) (size 2 2) (drill 1.1) (layers *.Cu *.Mask)
      (net 4 "Net-(R1-Pad1)") (pinfunction "2") (pintype "passive") (tstamp fb70a475-8e2d-4ad3-ae13-39428cf6125e))
    (model "${KICAD6_3DMODEL_DIR}/Button_Switch_THT.3dshapes/SW_PUSH_6mm_H5mm.wrl"
      (offset (xyz 0 0 0))
      (scale (xyz 1 1 1))
      (rotate (xyz 0 0 0))
    )
  )

  (footprint "Connector_PinHeader_1.00mm:PinHeader_2x01_P1.00mm_Vertical_SMD" (layer "F.Cu")
    (tedit 59FED738) (tstamp 7b4f6fbf-fe90-4375-a2e7-2069b5197240)
    (at 216.25 121.3 -90)
    (descr "surface-mounted straight pin header, 2x01, 1.00mm pitch, double rows")
    (tags "Surface mounted pin header SMD 2x01 1.00mm double row")
    (property "Sheetfile" "myproject.kicad_sch")
    (property "Sheetname" "")
    (path "/70478124-38dd-406d-b36a-a7a4d18011b0")
    (attr smd)
    (fp_text reference "J1" (at -2 -1.75 90) (layer "F.SilkS")
      (effects (font (size 1 1) (thickness 0.15)))
      (tstamp 3ace0a35-1d54-4a98-863d-e4c9b0a582ed)
    )
    (fp_text value "power" (at 0.9 -1.675 90) (layer "F.Fab")
      (effects (font (size 1 1) (thickness 0.15)))
      (tstamp 1693f8dc-1ab4-45cc-af20-820b460c7fa8)
    )
    (fp_text user "${REFERENCE}" (at 0 0) (layer "F.Fab")
      (effects (font (size 1 1) (thickness 0.15)))
      (tstamp 3250bb62-194c-4763-ad35-b2f0ad1e7aa6)
    )
    (fp_line (start -1.21 0.56) (end 1.21 0.56) (layer "F.SilkS") (width 0.12) (tstamp 54dcff01-f34c-4c58-8129-7d2109650b34))
    (fp_line (start 1.21 0.51) (end 1.21 0.56) (layer "F.SilkS") (width 0.12) (tstamp 6500cf9d-e2b8-43d4-a0ca-274b25a07b54))
    (fp_line (start 1.21 -0.56) (end 1.21 -0.51) (layer "F.SilkS") (width 0.12) (tstamp 66ba2ffc-e4d0-421e-a9e6-d05e859adf2c))
    (fp_line (start -2.59 -0.51) (end -1.21 -0.51) (layer "F.SilkS") (width 0.12) (tstamp 7a1f25e2-5c2d-45f4-904f-880cd5ddafe4))
    (fp_line (start -1.21 -0.56) (end 1.21 -0.56) (layer "F.SilkS") (width 0.12) (tstamp 7b9bafcf-ff4d-4cd3-9253-d831f58e1c68))
    (fp_line (start -1.21 0.51) (end -1.21 0.56) (layer "F.SilkS") (width 0.12) (tstamp 98bb12ae-5615-49bb-a21d-58a5bdaaf7bd))
    (fp_line (start -1.21 -0.56) (end -1.21 -0.51) (layer "F.SilkS") (width 0.12) (tstamp e0366eb1-4c6e-467d-818e-41b6dde3bb28))
    (fp_line (start 3.65 1) (end 3.65 -1) (layer "F.CrtYd") (width 0.05) (tstamp 04fd59f3-3f03-4e52-8769-3272b22f61f5))
    (fp_line (start 3.65 -1) (end -3.65 -1) (layer "F.CrtYd") (width 0.05) (tstamp 0d95c66b-b103-4abd-94dd-dcc82ea6e38c))
    (fp_line (start -3.65 1) (end 3.65 1) (layer "F.CrtYd") (width 0.05) (tstamp b8625407-5e81-4058-b20b-cc0487b3570b))
    (fp_line (start -3.65 -1) (end -3.65 1) (layer "F.CrtYd") (width 0.05) (tstamp f99a3119-1473-45a5-8aed-b8f1c5a02524))
    (fp_line (start 1.15 -0.15) (end 2.4 -0.15) (layer "F.Fab") (width 0.1) (tstamp 0c751050-b888-4abc-8779-697fb8bdde6f))
    (fp_line (start -1.15 -0.15) (end -2.4 -0.15) (layer "F.Fab") (width 0.1) (tstamp 2395242d-aad1-4265-8664-e26011fad928))
    (fp_line (start -2.4 0.15) (end -1.15 0.15) (layer "F.Fab") (width 0.1) (tstamp 2c186cbf-9cac-4388-adb2-6d310baf89db))
    (fp_line (start -2.4 -0.15) (end -2.4 0.15) (layer "F.Fab") (width 0.1) (tstamp 3ca3facb-cb65-466e-a53c-ba817575197d))
    (fp_line (start -1.15 -0.15) (end -0.8 -0.5) (layer "F.Fab") (width 0.1) (tstamp 728c79e9-5768-4bc5-81e1-e9810ba43862))
    (fp_line (start 2.4 0.15) (end 1.15 0.15) (layer "F.Fab") (width 0.1) (tstamp 8e606922-08c7-4d14-8e6b-d1873e169fc8))
    (fp_line (start -0.8 -0.5) (end 1.15 -0.5) (layer "F.Fab") (width 0.1) (tstamp 9c5d369c-d6f9-4243-a861-5074137c3724))
    (fp_line (start 2.4 -0.15) (end 2.4 0.15) (layer "F.Fab") (width 0.1) (tstamp a11c9cbc-6b23-4372-be92-5489517fa5c9))
    (fp_line (start 1.15 0.5) (end -1.15 0.5) (layer "F.Fab") (width 0.1) (tstamp bbfddde2-4f75-44b8-ade5-03768c83e2be))
    (fp_line (start 1.15 -0.5) (end 1.15 0.5) (layer "F.Fab") (width 0.1) (tstamp e0c2897c-68a4-44aa-a2aa-fda96e7fcf19))
    (fp_line (start -1.15 0.5) (end -1.15 -0.15) (layer "F.Fab") (width 0.1) (tstamp ff7a968f-7640-4ce3-9f4f-aae4581d5fc1))
    (pad "1" smd rect (at -1.65 0 270) (size 2 0.5) (layers "F.Cu" "F.Paste" "F.Mask")
      (net 3 "VCC") (pinfunction "Pin_1") (pintype "passive") (tstamp a9f4a845-f356-417a-b48c-af4797489f55))
    (pad "2" smd rect (at 1.65 0 270) (size 2 0.5) (layers "F.Cu" "F.Paste" "F.Mask")
      (net 1 "GND") (pinfunction "Pin_2") (pintype "passive") (tstamp 54a43dd5-b5e6-444d-bf86-e234588c253a))
    (model "${KICAD6_3DMODEL_DIR}/Connector_PinHeader_1.00mm.3dshapes/PinHeader_2x01_P1.00mm_Vertical_SMD.wrl"
      (offset (xyz 0 0 0))
      (scale (xyz 1 1 1))
      (rotate (xyz 0 0 0))
    )
  )

  (footprint "Resistor_SMD:R_0201_0603Metric_Pad0.64x0.40mm_HandSolder" (layer "F.Cu")
    (tedit 5F6BB9E0) (tstamp 8247310a-de92-4616-9b08-cb00011df0ce)
    (at 207.2425 126.75)
    (descr "Resistor SMD 0201 (0603 Metric), square (rectangular) end terminal, IPC_7351 nominal with elongated pad for handsoldering. (Body size source: https://www.vishay.com/docs/20052/crcw0201e3.pdf), generated with kicad-footprint-generator")
    (tags "resistor handsolder")
    (property "Sheetfile" "myproject.kicad_sch")
    (property "Sheetname" "")
    (path "/caa12477-5361-4c08-88eb-66767c52aca3")
    (attr smd)
    (fp_text reference "R1" (at -2.0825 0) (layer "F.SilkS")
      (effects (font (size 1 1) (thickness 0.15)))
      (tstamp 79b24665-ac72-40a1-bf98-1c90306aadbb)
    )
    (fp_text value "1k" (at 0 1.05) (layer "F.Fab")
      (effects (font (size 1 1) (thickness 0.15)))
      (tstamp 4fe37700-7aad-4777-92a8-e5029cc6ed5d)
    )
    (fp_text user "${REFERENCE}" (at -2.0825 0.37) (layer "F.Fab")
      (effects (font (size 0.25 0.25) (thickness 0.04)))
      (tstamp c83516c6-b7c2-4a54-8a44-68b8e720801a)
    )
    (fp_line (start 0.88 0.35) (end -0.88 0.35) (layer "F.CrtYd") (width 0.05) (tstamp 6110242e-4c73-425f-a004-5e95222f4241))
    (fp_line (start -0.88 -0.35) (end 0.88 -0.35) (layer "F.CrtYd") (width 0.05) (tstamp 63127317-183f-4d62-8758-bf4f1c953d00))
    (fp_line (start 0.88 -0.35) (end 0.88 0.35) (layer "F.CrtYd") (width 0.05) (tstamp 6a120c38-e96d-492e-8abc-9172417b3996))
    (fp_line (start -0.88 0.35) (end -0.88 -0.35) (layer "F.CrtYd") (width 0.05) (tstamp 92e6e439-f730-4672-9c35-e6f7b318aee9))
    (fp_line (start 0.3 -0.15) (end 0.3 0.15) (layer "F.Fab") (width 0.1) (tstamp 48c69221-7097-4358-a945-18ac26d862fe))
    (fp_line (start -0.3 0.15) (end -0.3 -0.15) (layer "F.Fab") (width 0.1) (tstamp 4cf95094-3552-494f-88bc-8a44cba50a02))
    (fp_line (start 0.3 0.15) (end -0.3 0.15) (layer "F.Fab") (width 0.1) (tstamp 6e59773b-20cf-43bf-aecf-380aa682d29d))
    (fp_line (start -0.3 -0.15) (end 0.3 -0.15) (layer "F.Fab") (width 0.1) (tstamp 81c18b0a-52ca-46af-8bf3-8ef5b585e478))
    (pad "" smd roundrect (at -0.4325 0) (size 0.458 0.36) (layers "F.Paste") (roundrect_rratio 0.25) (tstamp 6e8e9621-1761-4be4-b47a-fa6b1c025707))
    (pad "" smd roundrect (at 0.4325 0) (size 0.458 0.36) (layers "F.Paste") (roundrect_rratio 0.25) (tstamp 97a17ffb-7ade-4c62-b6bd-20debad21dd8))
    (pad "1" smd roundrect (at -0.4075 0) (size 0.635 0.4) (layers "F.Cu" "F.Mask") (roundrect_rratio 0.25)
      (net 4 "Net-(R1-Pad1)") (pintype "passive") (tstamp b03c9f8f-e091-4025-8f35-c4a6290036fe))
    (pad "2" smd roundrect (at 0.4075 0) (size 0.635 0.4) (layers "F.Cu" "F.Mask") (roundrect_rratio 0.25)
      (net 2 "Net-(D1-Pad2)") (pintype "passive") (tstamp de78d66b-21ff-49c4-a034-4026c564b64e))
    (model "${KICAD6_3DMODEL_DIR}/Resistor_SMD.3dshapes/R_0201_0603Metric.wrl"
      (offset (xyz 0 0 0))
      (scale (xyz 1 1 1))
      (rotate (xyz 0 0 0))
    )
  )

  (footprint "LED_SMD:LED_2010_5025Metric_Pad1.52x2.65mm_HandSolder" (layer "F.Cu")
    (tedit 5F68FEF1) (tstamp f02cbcc7-7c79-4c46-a462-5c6d2161b046)
    (at 213.725 126.775 180)
    (descr "LED SMD 2010 (5025 Metric), square (rectangular) end terminal, IPC_7351 nominal, (Body size source: http://www.tortai-tech.com/upload/download/2011102023233369053.pdf), generated with kicad-footprint-generator")
    (tags "LED handsolder")
    (property "Sheetfile" "myproject.kicad_sch")
    (property "Sheetname" "")
    (path "/bcb73b93-4624-4df9-b617-5a1bba05e0aa")
    (attr smd)
    (fp_text reference "D1" (at -2.875 -2.375) (layer "F.SilkS")
      (effects (font (size 1 1) (thickness 0.15)))
      (tstamp f3cdd00b-eb1a-4c2b-9555-c97bc808f5b1)
    )
    (fp_text value "RED_LED" (at 1.6 -2.425) (layer "F.Fab")
      (effects (font (size 1 1) (thickness 0.15)))
      (tstamp 7ba397ae-0d1a-4732-8972-9612adee451c)
    )
    (fp_text user "${REFERENCE}" (at 0 0) (layer "F.Fab")
      (effects (font (size 1 1) (thickness 0.15)))
      (tstamp 4e27ca61-bf05-4961-8b5d-977fd22454a7)
    )
    (fp_line (start -3.36 1.585) (end 2.5 1.585) (layer "F.SilkS") (width 0.12) (tstamp 614d1f66-a252-4b19-b3f8-51004aadc278))
    (fp_line (start 2.5 -1.585) (end -3.36 -1.585) (layer "F.SilkS") (width 0.12) (tstamp 616b56be-f113-4810-8b00-fc5e92356da2))
    (fp_line (start -3.36 -1.585) (end -3.36 1.585) (layer "F.SilkS") (width 0.12) (tstamp bc0d21b1-974b-4677-8122-4c27e53f17cf))
    (fp_line (start -3.35 -1.58) (end 3.35 -1.58) (layer "F.CrtYd") (width 0.05) (tstamp 3cb3cc87-2c9f-443f-8ec7-6725edfb9a8d))
    (fp_line (start 3.35 1.58) (end -3.35 1.58) (layer "F.CrtYd") (width 0.05) (tstamp 6069af22-9cd2-4278-bff1-c0340171c536))
    (fp_line (start -3.35 1.58) (end -3.35 -1.58) (layer "F.CrtYd") (width 0.05) (tstamp 611b211c-465b-42b2-a81b-340d30cf14c9))
    (fp_line (start 3.35 -1.58) (end 3.35 1.58) (layer "F.CrtYd") (width 0.05) (tstamp 80f1e25c-501b-4592-889d-13d9cf6b68ae))
    (fp_line (start 2.5 -1.25) (end -1.875 -1.25) (layer "F.Fab") (width 0.1) (tstamp 0e7f768e-b147-411b-bf35-1e3fac46ced4))
    (fp_line (start 2.5 1.25) (end 2.5 -1.25) (layer "F.Fab") (width 0.1) (tstamp 8982a036-67b0-46af-83a9-1f3f0cb9af77))
    (fp_line (start -2.5 1.25) (end 2.5 1.25) (layer "F.Fab") (width 0.1) (tstamp ab718489-24aa-4a93-afac-c123d685d990))
    (fp_line (start -2.5 -0.625) (end -2.5 1.25) (layer "F.Fab") (width 0.1) (tstamp b22a0934-6a4c-440a-82d9-8396a718dc11))
    (fp_line (start -1.875 -1.25) (end -2.5 -0.625) (layer "F.Fab") (width 0.1) (tstamp e97d6f91-227d-4b83-b78c-86d82f478af4))
    (pad "1" smd roundrect (at -2.3375 0 180) (size 1.525 2.65) (layers "F.Cu" "F.Paste" "F.Mask") (roundrect_rratio 0.163934)
      (net 1 "GND") (pinfunction "K") (pintype "passive") (tstamp ff6ee1b6-2582-4f1d-b36e-3e136e0df941))
    (pad "2" smd roundrect (at 2.3375 0 180) (size 1.525 2.65) (layers "F.Cu" "F.Paste" "F.Mask") (roundrect_rratio 0.163934)
      (net 2 "Net-(D1-Pad2)") (pinfunction "A") (pintype "passive") (tstamp 20b81799-6257-495e-81a7-c4a151015de9))
    (model "${KICAD6_3DMODEL_DIR}/LED_SMD.3dshapes/LED_2010_5025Metric.wrl"
      (offset (xyz 0 0 0))
      (scale (xyz 1 1 1))
      (rotate (xyz 0 0 0))
    )
  )

  (gr_line (start 220.3 114.95) (end 220.3 130.65) (layer "F.Cu") (width 0.2) (tstamp 055c508c-3b1d-418a-a809-398b6f637be4))
  (gr_line (start 220.225 130.625) (end 202.125 130.525) (layer "F.Cu") (width 0.2) (tstamp 3ce27c49-9970-4de2-8cb4-a67de85e7c4b))
  (gr_line (start 203 114.975) (end 202.1 114.975) (layer "F.Cu") (width 0.2) (tstamp 8beb1877-3161-4d73-b97d-00dabca89641))
  (gr_line (start 203.075 114.975) (end 220.25 114.975) (layer "F.Cu") (width 0.2) (tstamp 8d4fedb8-b85a-4337-8c7c-fe674f4cc5a8))
  (gr_line (start 202.049999 115.225) (end 202.05 114.975) (layer "F.Cu") (width 0.2) (tstamp bff78607-8571-4274-ae92-7e4953a439c4))
  (gr_line (start 202.125 130.525) (end 202.049999 115.225) (layer "F.Cu") (width 0.2) (tstamp e6d9cf20-5453-4269-9ab1-982ad4ba1676))

  (segment (start 216.25 122.95) (end 216.25 126.5875) (width 0.25) (layer "F.Cu") (net 1) (tstamp 8271dfba-3962-4c80-a371-fd4d42efa2fe))
  (segment (start 216.25 126.5875) (end 216.0625 126.775) (width 0.25) (layer "F.Cu") (net 1) (tstamp c807b689-bc4c-4360-a355-4bb0e4c00ec1))
  (segment (start 211.3875 126.775) (end 207.675 126.775) (width 0.25) (layer "F.Cu") (net 2) (tstamp 0a4048c7-624d-4fa3-ba3c-7ff3245e1912))
  (segment (start 207.675 126.775) (end 207.65 126.75) (width 0.25) (layer "F.Cu") (net 2) (tstamp 4f164966-96b4-4af1-b000-64fc7501cfa0))
  (segment (start 213.3 119.05) (end 215.65 119.05) (width 0.25) (layer "F.Cu") (net 3) (tstamp 038e9792-bbbd-4d6a-ad41-0356a4fa93a7))
  (segment (start 215.65 119.05) (end 216.25 119.65) (width 0.25) (layer "F.Cu") (net 3) (tstamp 10036940-5eea-4e30-bc37-609037429be8))
  (segment (start 206.8 119.05) (end 213.3 119.05) (width 0.25) (layer "F.Cu") (net 3) (tstamp e691d3b2-df39-40fe-9dfc-70960448ce86))
  (segment (start 213.3 123.55) (end 206.8 123.55) (width 0.25) (layer "F.Cu") (net 4) (tstamp 1a52ed52-a350-46c1-9a3f-2c4738963a98))
  (segment (start 206.8 126.715) (end 206.8 123.55) (width 0.25) (layer "F.Cu") (net 4) (tstamp 60ac9bbc-ab88-461c-84b2-ab062e70f4f4))
  (segment (start 206.835 126.75) (end 206.8 126.715) (width 0.25) (layer "F.Cu") (net 4) (tstamp bd58ad52-36c7-460d-b58d-1e0ca17757a0))

)
